{
    "salmon_version": "1.5.0",
    "libType": "A",
    "index": "/scicore/home/jekluk00/seyres0000/ref/salmon_index/salmon_index/",
    "threads": "8",
    "validateMappings": [],
    "seqBias": [],
    "gcBias": [],
    "posBias": [],
    "geneMap": "/scicore/home/jekluk00/seyres0000/ref/gencode.vM25.annotation.sorted.gtf",
    "softclip": [],
    "numBootstraps": "100",
    "unmatedReads": "/scicore/home/jekluk00/seyres0000/miRNA_APA_project/Salmon/quantification//naive_wt_rep4.fastq",
    "output": "/scicore/home/jekluk00/seyres0000/miRNA_APA_project/Salmon/quantification//Marianne_naive_wt_rep4",
    "auxDir": "aux_info"
}