"","naive_vs_allActivated"
"1","Ireb2"
"2","Smn1"
"3","Fam98b"
"4","Myh10"
"5","Igf2r"
"6","Coq5"
"7","Ar"
"8","Zfp266"
"9","Bbip1"
"10","Kdm4b"
"11","Trim17"
"12","Acadm"
"13","Acbd3"
"14","Dusp10"
"15","Psma4"
"16","Alkbh8"
"17","Mat2b"
"18","Trp53rkb"
"19","Ccdc28b"
"20","Mettl2"
"21","Chsy1"
"22","1810013L24Rik"
"23","Csk"
"24","Fam210a"
"25","Tradd"
"26","Gtpbp6"
"27","Ep300"
"28","Rbmx2"
"29","Clk3"
"30","Phf20"
"31","Psmd12"
"32","Micos13"
"33","Dnajb2"
"34","Pi4kb"
"35","Zhx2"
"36","Snx12"
"37","Thyn1"
"38","Pex6"
"39","Khdrbs1"
"40","Strn"
"41","Gnmt"
"42","Iars2"
"43","Alg13"
"44","Atm"
"45","Slc17a5"
"46","Hadh"
"47","Cops8"
"48","Qtrt2"
"49","Lgals1"
"50","2410004B18Rik"
"51","Washc4"
"52","Slc24a5"
"53","Dpp8"
"54","Spata2"
"55","Eri3"
"56","App"
"57","Ttc7"
"58","Ibtk"
"59","Atp6v1a"
"60","Atp6v1e1"
"61","Fbxo28"
"62","Dock9"
"63","Vezf1"
"64","Ripor3"
"65","Spindoc"
"66","Bcat1"
"67","Rtn3"
"68","Lmtk2"
"69","9130401M01Rik"
"70","Mpzl3"
"71","Ripor2"
"72","Rora"
"73","Sfpq"
"74","Ubp1"
"75","Jmy"
"76","Map4k3"
"77","Ctps2"
"78","Ppp2r2a"
"79","Arsb"
"80","Slc22a14"
"81","Ccdc134"
"82","Rpsa"
"83","Rpl14"
"84","Pde3b"
"85","Zfp207"
"86","Poglut1"
"87","Fam193a"
"88","Oxa1l"
"89","Stx2"
"90","Zfp60"
"91","Asxl1"
"92","Mroh2a"
"93","Itpkb"
"94","9530068E07Rik"
"95","Heph"
"96","Rab11fip1"
"97","Cops4"
"98","Ctnnbl1"
"99","Ubxn8"
"100","Tubb6"
"101","Mdm4"
"102","Tshz1"
"103","Man2b1"
"104","Cwc27"
"105","Eif2b3"
"106","Parn"
"107","Smarcad1"
"108","Shld1"
"109","Memo1"
"110","Pabpc4"
"111","Ggt7"
"112","Naa20"
"113","Atp5g1"
"114","Camk2b"
"115","Ube2q1"
"116","Babam2"
"117","Rab14"
"118","Tead1"
"119","Plcxd2"
"120","Fzr1"
"121","Zfyve28"
"122","Gm42417"
"123","Srprb"
"124","Fcgrt"
"125","Lcorl"
"126","Anapc7"
"127","Taco1"
"128","Tex14"
"129","D6Wsu163e"
"130","Cnot11"
"131","Secisbp2l"
"132","Tg"
"133","Rhbdf2"
"134","Klc2"
"135","Arhgap12"
"136","Srsf5"
"137","Knop1"
"138","Rabif"
"139","Larp1b"
"140","C1d"
"141","Zc3hav1l"
"142","Gnpda2"
"143","Mrps24"
"144","Wdr20"
"145","Heatr1"
"146","Mypop"
"147","Supt20"
"148","Sqle"
"149","Prkar2b"
"150","Pik3r1"
"151","Zfp61"
"152","Cops3"
"153","Rnf6"
"154","Lratd2"
"155","Rdh11"
"156","Ccdc117"
"157","Raet1e"
"158","Ipo7"
"159","Ttbk2"
"160","Fcsk"
"161","Fars2"
"162","Tmem238"
"163","Hnrnpul2"
"164","Dnajc8"
"165","Bola2"
"166","Trak1"
"167","Gtf2a1"
"168","Pcsk4"
"169","Cops7a"
"170","Tsga10ip"
"171","Katnbl1"
"172","Med24"
"173","Rab2a"
"174","Pdzd8"
"175","Isoc2a"
"176","Zfp955b"
"177","Parp9"
"178","Aktip"
"179","Nat14"
"180","Ccr9"
"181","Ubap2l"
"182","Elf2"
"183","Rbm27"
"184","Gm43552"
"185","Irak3"
"186","Atr"
"187","Sf3a3"
"188","Chuk"
"189","Tmem242"
"190","Rps7"
"191","Dnm1l"
"192","Tas1r1"
"193","Thap1"
"194","Polr1d"
"195","Usp22"
"196","Snx9"
"197","Ankrd52"
"198","Tbc1d16"
"199","Zxdb"
"200","Fmnl3"
"201","Ube2k"
"202","Nars"
"203","Ppa2"
"204","Vdac2"
"205","Gdpgp1"
"206","Bod1l"
"207","Lrrc58"
"208","Fra10ac1"
"209","Ppie"
"210","Rab33b"
"211","Ccdc6"
"212","Prkcq"
"213","Zfp53"
"214","9330136K24Rik"
"215","Zfp260"
"216","Ntrk3"
"217","Zfhx2"
"218","B3galnt2"
"219","Ppp1r14b"
"220","Rabep1"
"221","Ift57"
"222","Gins3"
"223","Slc4a1ap"
"224","Cldnd1"
"225","Tcerg1"
"226","Trim7"
"227","Ppp1r8"
"228","C77080"
"229","Tecpr2"
"230","Kifap3"
"231","Ppp3r1"
"232","Thoc3"
"233","Tmx1"
"234","Gfod2"
"235","Rabep2"
"236","Ube2f"
"237","Ppp1cc"
"238","Orai1"
"239","Zfp748"
"240","Mfsd6"
"241","Prr14"
"242","Rbm3"
"243","Dtx1"
"244","Eef1d"
"245","Tgs1"
"246","2310033P09Rik"
"247","Frg2f1"
"248","Tnfaip8"
"249","Fancl"
"250","Dnajc17"
"251","Stat5a"
"252","Camsap2"
"253","Cep85l"
"254","Ilf2"
"255","Primpol"
"256","Slc3a2"
"257","Scamp3"
"258","Pdss1"
"259","5031425E22Rik"
"260","Tpk1"
"261","Dbf4"
"262","Prune1"
"263","Fbxl5"
"264","Tent5c"
"265","Inpp5d"
"266","Sfxn3"
"267","Cmip"
"268","Ints8"
"269","1110051M20Rik"
"270","Fam129a"
"271","Hspa14"
"272","Baz1a"
"273","B4galnt4"
"274","Akap12"
"275","Pgm1"
"276","Etv6"
"277","Adam19"
"278","Ttf2"
"279","Atp6v1d"
"280","Med29"
"281","Ubap1"
"282","Zfp830"
"283","Chd1"
"284","H2-DMa"
"285","Rbm17"
"286","Thop1"
"287","Frs2"
"288","Wdr33"
