"","x"
"1","Csf1r"
"2","Fcrla"
"3","Car1"
"4","Itgad"
"5","Camk2b"
"6","Itgae"
"7","Ccdc30"
"8","Alas2"
"9","Prg4"
"10","Ldlrad4"
"11","Fcmr"
"12","Prickle3"
"13","Lncpint"
"14","Baiap3"
"15","Ggnbp1"
"16","Emc9"
"17","Rccd1"
"18","Rpgrip1"
"19","Vamp1"
"20","Arhgap4"
"21","Tmcc1"
"22","Il11ra1"
"23","Adamts3"
"24","Dnhd1"
"25","Lats2"
"26","Abcb4"
"27","Hsd17b11"
"28","Ralgps1"
"29","Dnah17"
"30","Lmna"
"31","Pip4p1"
"32","Rab18"
"33","Tulp4"
"34","Ssh2"
"35","Arhgef11"
"36","Smim27"
"37","Tmem191c"
"38","Chrnb2"
"39","Slc25a35"
"40","Tbc1d8"
"41","Dcdc2b"
"42","Zfp943"
"43","Gpr137c"
"44","Rundc3a"
"45","Ankhd1"
"46","Arvcf"
"47","Spata1"
"48","Dnase1"
"49","Lcorl"
"50","Dapk1"
"51","Lpp"
"52","Slc9a7"
"53","Ubxn6"
"54","Hmg20a"
"55","Gtf2ird2"
"56","Pear1"
"57","Yipf2"
"58","Zbtb20"
"59","Wdr66"
"60","Clock"
"61","Egfl8"
"62","Lyn"
"63","Kmo"
"64","Cd72"
"65","Zscan18"
"66","Pam"
"67","Ttc17"
"68","Slc37a2"
"69","Mbd5"
"70","Sgk3"
"71","Bbs9"
"72","Sla2"
"73","Rgl1"
"74","Kansl1l"
"75","Tjp3"
"76","Inpp5e"
"77","Mamdc4"
"78","Rps19"
"79","Snx32"
"80","Msh5"
"81","Grk4"
"82","Mettl23"
"83","Arl5c"
"84","Abr"
"85","Pde4d"
"86","Rps21"
"87","Ccpg1"
"88","Rfxank"
"89","Map3k13"
"90","Plcl1"
"91","1700123O20Rik"
"92","Fyb"
"93","Mfsd11"
"94","Rsph10b"
"95","Cnbd2"
"96","Smg6"
"97","Stard9"
"98","Specc1"
"99","Tmem35b"
"100","Trim14"
"101","Pnpla7"
"102","Arpc1b"
"103","Rps15a"
"104","Pus3"
"105","Klhdc8b"
"106","Ccdc171"
"107","4930402H24Rik"
"108","Acss2"
"109","Nkiras1"
"110","Cfap74"
"111","Zfp950"
"112","Kctd18"
"113","Cog8"
"114","Rpl13a"
"115","Zbtb18"
"116","Dqx1"
"117","Dnajc14"
"118","Gbp8"
"119","E130218I03Rik"
"120","Arid1b"
"121","Rere"
"122","Zfp276"
"123","Ccdc142"
"124","Rps6kb2"
"125","Dnase1l1"
"126","Camk1d"
"127","Rps3"
"128","Map3k12"
"129","Prpf39"
"130","Gbp9"
"131","Rabgef1"
"132","Tmem11"
"133","Elmo3"
"134","E4f1"
"135","Gm20547"
"136","Rps24"
"137","Golga2"
"138","C030006K11Rik"
"139","Etfrf1"
"140","Foxp3"
"141","Wwp2"
"142","Msantd1"
"143","Naif1"
"144","Rpl35a"
"145","Cacna1a"
"146","Ubb"
"147","Pgam2"
"148","Ntng2"
"149","Tcf12"
"150","Uros"
"151","Pcdhgb6"
"152","Lnx1"
"153","Galnt2l"
"154","Zfp566"
"155","6330409D20Rik"
"156","Rrm2b"
"157","Trpc2"
"158","U2surp"
"159","Gatb"
"160","Hspa4"
"161","Alkbh3"
"162","Prmt7"
"163","Gm45902"
"164","Etfa"
"165","Fastkd5"
"166","Shprh"
"167","Fam174a"
"168","Pdcd2l"
"169","Apoh"
"170","Bclaf1"
"171","Dnajc19"
"172","Ipo11"
"173","Mrps18c"
"174","Mrpl37"
"175","Gtpbp8"
"176","Cmas"
"177","Cse1l"
"178","Mvk"
"179","Mcmbp"
"180","Mpc2"
"181","Tex10"
"182","Septin7"
"183","Cops5"
"184","Otulin"
"185","Crbn"
"186","Slc33a1"
"187","Trappc13"
"188","Txndc9"
"189","Shld3"
"190","Cenpu"
"191","Tgfb1"
"192","Plrg1"
"193","Hcfc2"
"194","Pias2"
"195","Ccnk"
"196","Ccdc59"
"197","H2az1"
"198","Ppp2r5c"
"199","Tmem192"
"200","Prep"
"201","Tdg"
"202","Lrig1"
"203","Tmem39a"
"204","Ercc3"
"205","Snd1"
"206","Slc30a7"
"207","Btbd1"
"208","Prpf38a"
"209","Cnih4"
"210","Cab39l"
"211","Drosha"
"212","Tecpr2"
"213","Strbp"
"214","Lonp1"
"215","Ebna1bp2"
"216","Tatdn1"
"217","Ube2e1"
"218","Snx25"
"219","Tm2d1"
"220","Hspa4l"
"221","Psme4"
"222","Aktip"
"223","Ufsp2"
"224","Gm20721"
"225","Fdx1"
"226","Got1"
"227","Vps50"
"228","Lrpap1"
"229","Clp1"
"230","Psme2"
"231","Wdr48"
"232","Dnase2a"
"233","Cul2"
"234","Ttc21b"
"235","Prkrip1"
"236","Psma6"
"237","Acer3"
"238","Tyw3"
"239","Stam2"
"240","Btf3"
"241","Pspc1"
"242","C130026I21Rik"
"243","Med14"
"244","Mex3c"
"245","Eny2"
"246","Pdf"
"247","Cct4"
"248","Ttc32"
"249","Rabepk"
"250","Mkln1"
"251","Cops3"
"252","Afdn"
"253","Cobll1"
"254","Clasp2"
"255","Naxd"
"256","Vps45"
"257","Gm21987"
"258","2210408I21Rik"
"259","Focad"
"260","Rnf141"
"261","Alg14"
"262","Fan1"
"263","Nphp4"
"264","Trnt1"
"265","Nup133"
"266","Ehbp1"
"267","Igf2bp3"
"268","Cdc123"
"269","Ankrd61"
"270","Sh3glb1"
"271","Fam104a"
"272","Tsg101"
"273","Bud31"
"274","Tpp2"
"275","Gmps"
"276","Orc3"
"277","Ttc19"
"278","Wrap73"
"279","Nars2"
"280","Cox17"
"281","Copb1"
"282","Phf10"
"283","Ube2a"
"284","Stambpl1"
"285","Sgsm3"
"286","Gm45799"
"287","Mphosph10"
"288","Ahi1"
"289","Ints13"
"290","Pcna"
"291","Acadl"
"292","Abcg2"
"293","Ndufb4"
"294","Pgm3"
"295","Nop14"
"296","Eif2s2"
"297","Xrcc5"
"298","Luc7l3"
"299","Ubtd1"
"300","Slirp"
"301","Lrrfip2"
"302","Zswim7"
"303","Cblb"
"304","Cwc15"
"305","Rabgap1l"
"306","Ubtd2"
"307","Prmt6"
"308","Pdcd10"
"309","Nek1"
"310","Rilpl1"
"311","Nr2f6"
"312","Aldh18a1"
"313","Luzp1"
"314","Coq6"
"315","Osgepl1"
"316","Nol10"
"317","Mpp6"
"318","Adk"
"319","Ppp2r3c"
"320","Ttc27"
"321","Commd1b"
"322","Mrps9"
"323","Eif2ak4"
"324","Hacd2"
"325","Tspan13"
"326","Sulf2"
"327","Pi4k2b"
"328","Reps1"
"329","Hax1"
"330","Pbx3"
"331","Utp4"
"332","Tmem243"
"333","Ndufs3"
"334","Mrpl1"
"335","Pdss1"
"336","Smox"
"337","Srp54b"
"338","Ccz1"
"339","Ppa2"
"340","Mipep"
"341","Med29"
"342","U2af1"
"343","Lhpp"
"344","Nae1"
"345","Vcl"
"346","Tbl3"
"347","Tmem116"
"348","Ube2v2"
"349","Mgmt"
"350","Agpat4"
"351","Rnft1"
"352","Nmt2"
"353","Dcaf13"
"354","Pemt"
"355","1700037C18Rik"
"356","Gpx4"
"357","Kif23"
"358","Rpf1"
"359","Lrpprc"
"360","Pkp4"
"361","Eipr1"
"362","Immp2l"
"363","Pex7"
"364","Gla"
"365","Heatr1"
"366","Gabpb1"
"367","Efcab5"
"368","Rras2"
"369","Msto1"
"370","Hspa14"
"371","Acsl3"
"372","Hbs1l"
"373","Cox5b"
"374","Cdc42bpa"
"375","Ap3s1"
"376","Sorbs1"
"377","Lyrm9"
"378","Supt3"
"379","Xrn2"
"380","Rars2"
"381","Tusc3"
"382","Tmem120b"
"383","Laptm4b"
"384","Stat4"
"385","Pip5k1b"
"386","Tamm41"
"387","Gm44596"
"388","Atp5md"
"389","Commd1"
"390","Rars"
"391","Psmd6"
"392","Cenpc1"
"393","Atad2"
"394","Hnrnpm"
"395","Mkks"
"396","Farsb"
"397","Fus"
"398","Mrnip"
"399","Dhrs3"
"400","Med27"
"401","Cdk5rap1"
"402","Tlcd1"
"403","Bbs7"
"404","Vamp4"
"405","Unc50"
"406","Elp4"
"407","Actr8"
"408","Glmn"
"409","Psmd13"
"410","Lsr"
"411","Nup93"
"412","Atp5j"
"413","Malsu1"
"414","Fubp1"
"415","Retsat"
"416","Mrps6"
"417","Gm49711"
"418","1700086O06Rik"
"419","Pmpcb"
"420","Ssbp1"
"421","Mindy3"
"422","Rwdd1"
"423","Cog5"
"424","Gm17018"
"425","A530032D15Rik"
"426","Mrps22"
"427","Tspan4"
"428","Rps2"
"429","Hadhb"
"430","Igsf9"
"431","Itga9"
"432","Impdh2"
"433","Wdr36"
"434","Adrm1"
"435","Ndufaf2"
"436","9330136K24Rik"
"437","AC166256.1"
"438","Nubpl"
"439","Clpb"
"440","Fanci"
"441","Gss"
"442","Acp2"
"443","Nup214"
"444","Mrps25"
"445","Dennd4a"
"446","Magohb"
"447","Uxt"
"448","Oscp1"
"449","Col27a1"
"450","Lrp2bp"
"451","Tctn1"
"452","Tln2"
"453","Zranb3"
"454","Ndc80"
"455","Fbl"
"456","Cd44"
"457","Gmppb"
"458","Ccnh"
"459","Mgat4b"
"460","Lars"
"461","Nf1"
"462","Vmac"
"463","Tmem126a"
"464","Utp18"
"465","Sec61g"
"466","Ulbp1"
"467","Gpr146"
"468","Gm49380"
"469","Aldh7a1"
"470","Peak1"
"471","Ppp1cc"
"472","B4galnt4"
"473","Nol7"
"474","Gpld1"
"475","Dnaja3"
"476","Dpm1"
"477","Carnmt1"
"478","Kdm2b"
"479","Wdr61"
"480","Bhlhb9"
"481","Gmds"
"482","Ccnyl1"
"483","Chchd6"
"484","Eif2d"
"485","Psmc3ip"
"486","Ptprk"
"487","Lrrc8d"
"488","Mphosph8"
"489","Plxdc2"
"490","Polr2l"
"491","Slc5a3"
"492","Stau2"
"493","Tmem216"
"494","Cdkn3"
"495","B4galt4"
"496","Polr2k"
"497","Spire1"
"498","Ppp2r3a"
"499","Srp54a"
"500","Orai1"
"501","Nfkbib"
"502","Carmil1"
"503","Lars2"
"504","Zfyve21"
"505","Cenpw"
"506","Kif22"
"507","Bri3"
"508","Gphn"
"509","Echdc1"
"510","Cuta"
"511","Gch1"
"512","Syce2"
"513","Cdk8"
"514","Ndufb2"
"515","Unc13b"
"516","Nme7"
"517","Gm8369"
"518","BC055324"
"519","Plcxd1"
"520","Cdh23"
"521","Rad54l"
"522","Trim7"
"523","Cenpp"
"524","Rnf157"
"525","Lamb3"
"526","Rbbp8"
"527","Ddx39"
"528","Unc13a"
"529","Higd1a"
"530","Cmss1"
"531","Hip1r"
"532","Mpp7"
"533","Tmtc2"
"534","Zdhhc2"
"535","3110082I17Rik"
"536","Chaf1a"
"537","4931422A03Rik"
"538","Gins2"
"539","Tlcd2"
"540","Serpinc1"
"541","Arhgap21"
"542","Tg"
"543","Dnah7a"
